%YAML 1.1
%TAG !u! tag:unity3d.com,2011:
--- !u!114 &-6799448832388075905
MonoBehaviour:
  m_ObjectHideFlags: 11
  m_CorrespondingSourceObject: {fileID: 0}
  m_PrefabInstance: {fileID: 0}
  m_PrefabAsset: {fileID: 0}
  m_GameObject: {fileID: 0}
  m_Enabled: 1
  m_EditorHideFlags: 0
  m_Script: {fileID: 11500000, guid: d0353a89b1f911e48b9e16bdc9f2e058, type: 3}
  m_Name: 
  m_EditorClassIdentifier: 
  version: 9
--- !u!21 &2100000
Material:
  serializedVersion: 8
  m_ObjectHideFlags: 0
  m_CorrespondingSourceObject: {fileID: 0}
  m_PrefabInstance: {fileID: 0}
  m_PrefabAsset: {fileID: 0}
  m_Name: Grow Wall
  m_Shader: {fileID: -6465566751694194690, guid: 0be3b78456d18dc489d4ae104fcc44ec, type: 3}
  m_Parent: {fileID: 2100000, guid: 71d5fb9ca537a6242aba0acc690efee4, type: 2}
  m_ModifiedSerializedProperties: 0
  m_ValidKeywords: []
  m_InvalidKeywords: []
  m_LightmapFlags: 4
  m_EnableInstancingVariants: 0
  m_DoubleSidedGI: 0
  m_CustomRenderQueue: -1
  stringTagMap: {}
  disabledShaderPasses: []
  m_LockedProperties: 
  m_SavedProperties:
    serializedVersion: 3
    m_TexEnvs: []
    m_Ints: []
    m_Floats: []
    m_Colors:
    - _tint: {r: 1, g: 0.4117647, b: 0, a: 0.5019608}
    - _tint1: {r: 0.7075472, g: 0.6663849, b: 0.37824845, a: 1}
    - _tint2: {r: 0.6698113, g: 0.16850594, b: 0.20585372, a: 1}
  m_BuildTextureStacks: []
  m_AllowLocking: 1
